,,Total,a,b,
,0,,0.7933561798033869,0.7811894190482146,0.8014675227215876
,1,,0.20664382019661306,0.21881058095178538,0.19853247727841242
,Mean,,0.206643820197,0.218810580952,0.198532477278
,Count,,39977,15991,23986
